%YAML 1.1
%TAG !u! tag:unity3d.com,2011:
--- !u!687078895 &4343727234628468602
SpriteAtlas:
  m_ObjectHideFlags: 0
  m_CorrespondingSourceObject: {fileID: 0}
  m_PrefabInstance: {fileID: 0}
  m_PrefabAsset: {fileID: 0}
  m_Name: pinkImpAtlas
  m_EditorData:
    serializedVersion: 2
    textureSettings:
      serializedVersion: 2
      anisoLevel: 1
      compressionQuality: 50
      maxTextureSize: 2048
      textureCompression: 0
      filterMode: 0
      generateMipMaps: 0
      readable: 0
      crunchedCompression: 0
      sRGB: 1
    platformSettings:
    - serializedVersion: 3
      m_BuildTarget: DefaultTexturePlatform
      m_MaxTextureSize: 2048
      m_ResizeAlgorithm: 0
      m_TextureFormat: -1
      m_TextureCompression: 0
      m_CompressionQuality: 50
      m_CrunchedCompression: 0
      m_AllowsAlphaSplitting: 0
      m_Overridden: 0
      m_AndroidETC2FallbackOverride: 0
      m_ForceMaximumCompressionQuality_BC6H_BC7: 0
    packingSettings:
      serializedVersion: 2
      padding: 8
      blockOffset: 1
      allowAlphaSplitting: 0
      enableRotation: 0
      enableTightPacking: 0
    secondaryTextureSettings: {}
    variantMultiplier: 1
    packables:
    - {fileID: 2800000, guid: 93482f2c26dc5c24d821deed3e8e6cf9, type: 3}
    - {fileID: 2800000, guid: 1ae6fa8b1c04c04438f82a4b45bf550b, type: 3}
    - {fileID: 2800000, guid: 7b9eda8c31593024ba2f9f71b56f631f, type: 3}
    - {fileID: 2800000, guid: c8c06a84d0bf68f449bff9476b9b7579, type: 3}
    - {fileID: 2800000, guid: 55226111132012045876de2d7a131918, type: 3}
    - {fileID: 2800000, guid: 8601bf9a5b6a4b94bb24e1f662d5724d, type: 3}
    - {fileID: 2800000, guid: 75e51b103e176ed45a65ddd243e7bdba, type: 3}
    bindAsDefault: 1
    isAtlasV2: 0
    cachedData: {fileID: 0}
  m_MasterAtlas: {fileID: 0}
  m_PackedSprites:
  - {fileID: 21300000, guid: 75e51b103e176ed45a65ddd243e7bdba, type: 3}
  - {fileID: 21300000, guid: 55226111132012045876de2d7a131918, type: 3}
  - {fileID: 21300000, guid: c8c06a84d0bf68f449bff9476b9b7579, type: 3}
  - {fileID: 21300000, guid: 8601bf9a5b6a4b94bb24e1f662d5724d, type: 3}
  - {fileID: 21300000, guid: 1ae6fa8b1c04c04438f82a4b45bf550b, type: 3}
  - {fileID: 21300000, guid: 93482f2c26dc5c24d821deed3e8e6cf9, type: 3}
  - {fileID: 21300000, guid: 7b9eda8c31593024ba2f9f71b56f631f, type: 3}
  m_PackedSpriteNamesToIndex:
  - pink_imp1
  - pink_imp3
  - pink_imp4
  - pink_imp2
  - pink_imp6
  - pink_imp7
  - pink_imp5
  m_RenderDataMap: {}
  m_Tag: pinkImpAtlas
  m_IsVariant: 0
