%YAML 1.1
%TAG !u! tag:unity3d.com,2011:
--- !u!74 &7400000
AnimationClip:
  m_ObjectHideFlags: 0
  m_CorrespondingSourceObject: {fileID: 0}
  m_PrefabInstance: {fileID: 0}
  m_PrefabAsset: {fileID: 0}
  m_Name: SwordSpawn
  serializedVersion: 6
  m_Legacy: 0
  m_Compressed: 0
  m_UseHighQualityCurve: 1
  m_RotationCurves: []
  m_CompressedRotationCurves: []
  m_EulerCurves: []
  m_PositionCurves: []
  m_ScaleCurves: []
  m_FloatCurves: []
  m_PPtrCurves:
  - curve:
    - time: 0
      value: {fileID: 21300000, guid: c81a8e3d594e45f4c87e198b707d415f, type: 3}
    - time: 0.083333336
      value: {fileID: 21300000, guid: ebb629425f7611844879d5c9961651cf, type: 3}
    - time: 0.16666667
      value: {fileID: 21300000, guid: e8c9add8d7f45ce45a49a6f7b200db27, type: 3}
    - time: 0.25
      value: {fileID: 21300000, guid: c4e71db0daae09c46b641d517fb8a6c9, type: 3}
    - time: 0.33333334
      value: {fileID: 21300000, guid: 4b427555337af0c4ebbc8eea7b827998, type: 3}
    - time: 0.41666666
      value: {fileID: 21300000, guid: d325e60c050407542a31703e196d0665, type: 3}
    - time: 0.5
      value: {fileID: 21300000, guid: ee2c2f57aaa8bdb48a6fbfd2b8548910, type: 3}
    - time: 0.5833333
      value: {fileID: 21300000, guid: 1991e96efd7e5e048b5bdbf6b95cb738, type: 3}
    - time: 0.6666667
      value: {fileID: 21300000, guid: ec78674c85991cd4fbc3ff8d296a86f2, type: 3}
    - time: 0.75
      value: {fileID: 21300000, guid: 1f52fb7d3edff4f46a2666661a662ed9, type: 3}
    attribute: m_Sprite
    path: 
    classID: 212
    script: {fileID: 0}
  m_SampleRate: 12
  m_WrapMode: 0
  m_Bounds:
    m_Center: {x: 0, y: 0, z: 0}
    m_Extent: {x: 0, y: 0, z: 0}
  m_ClipBindingConstant:
    genericBindings:
    - serializedVersion: 2
      path: 0
      attribute: 0
      script: {fileID: 0}
      typeID: 212
      customType: 23
      isPPtrCurve: 1
    pptrCurveMapping:
    - {fileID: 21300000, guid: c81a8e3d594e45f4c87e198b707d415f, type: 3}
    - {fileID: 21300000, guid: ebb629425f7611844879d5c9961651cf, type: 3}
    - {fileID: 21300000, guid: e8c9add8d7f45ce45a49a6f7b200db27, type: 3}
    - {fileID: 21300000, guid: c4e71db0daae09c46b641d517fb8a6c9, type: 3}
    - {fileID: 21300000, guid: 4b427555337af0c4ebbc8eea7b827998, type: 3}
    - {fileID: 21300000, guid: d325e60c050407542a31703e196d0665, type: 3}
    - {fileID: 21300000, guid: ee2c2f57aaa8bdb48a6fbfd2b8548910, type: 3}
    - {fileID: 21300000, guid: 1991e96efd7e5e048b5bdbf6b95cb738, type: 3}
    - {fileID: 21300000, guid: ec78674c85991cd4fbc3ff8d296a86f2, type: 3}
    - {fileID: 21300000, guid: 1f52fb7d3edff4f46a2666661a662ed9, type: 3}
  m_AnimationClipSettings:
    serializedVersion: 2
    m_AdditiveReferencePoseClip: {fileID: 0}
    m_AdditiveReferencePoseTime: 0
    m_StartTime: 0
    m_StopTime: 0.8333333
    m_OrientationOffsetY: 0
    m_Level: 0
    m_CycleOffset: 0
    m_HasAdditiveReferencePose: 0
    m_LoopTime: 1
    m_LoopBlend: 0
    m_LoopBlendOrientation: 0
    m_LoopBlendPositionY: 0
    m_LoopBlendPositionXZ: 0
    m_KeepOriginalOrientation: 0
    m_KeepOriginalPositionY: 1
    m_KeepOriginalPositionXZ: 0
    m_HeightFromFeet: 0
    m_Mirror: 0
  m_EditorCurves: []
  m_EulerEditorCurves: []
  m_HasGenericRootTransform: 0
  m_HasMotionFloatCurves: 0
  m_Events: []
