%YAML 1.1
%TAG !u! tag:unity3d.com,2011:
--- !u!687078895 &4343727234628468602
SpriteAtlas:
  m_ObjectHideFlags: 0
  m_CorrespondingSourceObject: {fileID: 0}
  m_PrefabInstance: {fileID: 0}
  m_PrefabAsset: {fileID: 0}
  m_Name: monsterAtlas
  m_EditorData:
    serializedVersion: 2
    textureSettings:
      serializedVersion: 2
      anisoLevel: 1
      compressionQuality: 50
      maxTextureSize: 2048
      textureCompression: 0
      filterMode: 0
      generateMipMaps: 0
      readable: 0
      crunchedCompression: 0
      sRGB: 1
    platformSettings:
    - serializedVersion: 3
      m_BuildTarget: DefaultTexturePlatform
      m_MaxTextureSize: 2048
      m_ResizeAlgorithm: 0
      m_TextureFormat: -1
      m_TextureCompression: 0
      m_CompressionQuality: 50
      m_CrunchedCompression: 0
      m_AllowsAlphaSplitting: 0
      m_Overridden: 0
      m_AndroidETC2FallbackOverride: 0
      m_ForceMaximumCompressionQuality_BC6H_BC7: 0
    packingSettings:
      serializedVersion: 2
      padding: 8
      blockOffset: 1
      allowAlphaSplitting: 0
      enableRotation: 0
      enableTightPacking: 0
    secondaryTextureSettings: {}
    variantMultiplier: 1
    packables:
    - {fileID: 2800000, guid: 1b52bbdb33cf8ab4f864fea06ea883fc, type: 3}
    - {fileID: 2800000, guid: a299a7c2a73d3a34a9abebc9ad181dcf, type: 3}
    - {fileID: 2800000, guid: f80d420d07dc15c4bbf605e4631d9834, type: 3}
    - {fileID: 2800000, guid: a0b6a0d886ca00e498c2e5ab953cbcea, type: 3}
    - {fileID: 2800000, guid: c47565133b1ced34c8075c631fc2a122, type: 3}
    - {fileID: 2800000, guid: 8d2b837640b1a50428ec98e6366b1fb4, type: 3}
    - {fileID: 2800000, guid: ad8fda05b259c1d4483f2f7648c86aed, type: 3}
    - {fileID: 2800000, guid: 89a829113e29b524faa1fd4df6d5f617, type: 3}
    bindAsDefault: 1
    isAtlasV2: 0
    cachedData: {fileID: 0}
  m_MasterAtlas: {fileID: 0}
  m_PackedSprites:
  - {fileID: 21300000, guid: 89a829113e29b524faa1fd4df6d5f617, type: 3}
  - {fileID: 21300000, guid: a299a7c2a73d3a34a9abebc9ad181dcf, type: 3}
  - {fileID: 21300000, guid: c47565133b1ced34c8075c631fc2a122, type: 3}
  - {fileID: 21300000, guid: ad8fda05b259c1d4483f2f7648c86aed, type: 3}
  - {fileID: 21300000, guid: 8d2b837640b1a50428ec98e6366b1fb4, type: 3}
  - {fileID: 21300000, guid: a0b6a0d886ca00e498c2e5ab953cbcea, type: 3}
  - {fileID: 21300000, guid: 1b52bbdb33cf8ab4f864fea06ea883fc, type: 3}
  - {fileID: 21300000, guid: f80d420d07dc15c4bbf605e4631d9834, type: 3}
  m_PackedSpriteNamesToIndex:
  - monster1_1
  - monster1_7
  - monster1_4
  - monster1_2
  - monster1_3
  - monster1_5
  - monster1_8
  - monster1_6
  m_RenderDataMap: {}
  m_Tag: monsterAtlas
  m_IsVariant: 0
