%YAML 1.1
%TAG !u! tag:unity3d.com,2011:
--- !u!74 &7400000
AnimationClip:
  m_ObjectHideFlags: 0
  m_CorrespondingSourceObject: {fileID: 0}
  m_PrefabInstance: {fileID: 0}
  m_PrefabAsset: {fileID: 0}
  m_Name: smallSpawnDeathAnim
  serializedVersion: 6
  m_Legacy: 0
  m_Compressed: 0
  m_UseHighQualityCurve: 1
  m_RotationCurves: []
  m_CompressedRotationCurves: []
  m_EulerCurves: []
  m_PositionCurves: []
  m_ScaleCurves: []
  m_FloatCurves: []
  m_PPtrCurves:
  - curve:
    - time: 0
      value: {fileID: 21300000, guid: 613e51fbdf595bd499ae97b10011689a, type: 3}
    - time: 0.05
      value: {fileID: 21300000, guid: 920058eccd6edfd499a47ba4fd90e297, type: 3}
    - time: 0.23333333
      value: {fileID: 21300000, guid: a2b04753f62991448949a12de292fe80, type: 3}
    - time: 0.43333334
      value: {fileID: 21300000, guid: 70b06b53d2b908c4e9a6f0d2fa87d4d3, type: 3}
    - time: 0.6333333
      value: {fileID: 21300000, guid: 44bd4d9844262f040af514d8dba6753f, type: 3}
    - time: 0.8333333
      value: {fileID: 21300000, guid: f91c2acc4a6b9a94696924ef062a5aab, type: 3}
    attribute: m_Sprite
    path: 
    classID: 212
    script: {fileID: 0}
  m_SampleRate: 60
  m_WrapMode: 0
  m_Bounds:
    m_Center: {x: 0, y: 0, z: 0}
    m_Extent: {x: 0, y: 0, z: 0}
  m_ClipBindingConstant:
    genericBindings:
    - serializedVersion: 2
      path: 0
      attribute: 0
      script: {fileID: 0}
      typeID: 212
      customType: 23
      isPPtrCurve: 1
    pptrCurveMapping:
    - {fileID: 21300000, guid: 613e51fbdf595bd499ae97b10011689a, type: 3}
    - {fileID: 21300000, guid: 920058eccd6edfd499a47ba4fd90e297, type: 3}
    - {fileID: 21300000, guid: a2b04753f62991448949a12de292fe80, type: 3}
    - {fileID: 21300000, guid: 70b06b53d2b908c4e9a6f0d2fa87d4d3, type: 3}
    - {fileID: 21300000, guid: 44bd4d9844262f040af514d8dba6753f, type: 3}
    - {fileID: 21300000, guid: f91c2acc4a6b9a94696924ef062a5aab, type: 3}
  m_AnimationClipSettings:
    serializedVersion: 2
    m_AdditiveReferencePoseClip: {fileID: 0}
    m_AdditiveReferencePoseTime: 0
    m_StartTime: 0
    m_StopTime: 0.84999996
    m_OrientationOffsetY: 0
    m_Level: 0
    m_CycleOffset: 0
    m_HasAdditiveReferencePose: 0
    m_LoopTime: 1
    m_LoopBlend: 0
    m_LoopBlendOrientation: 0
    m_LoopBlendPositionY: 0
    m_LoopBlendPositionXZ: 0
    m_KeepOriginalOrientation: 0
    m_KeepOriginalPositionY: 1
    m_KeepOriginalPositionXZ: 0
    m_HeightFromFeet: 0
    m_Mirror: 0
  m_EditorCurves: []
  m_EulerEditorCurves: []
  m_HasGenericRootTransform: 0
  m_HasMotionFloatCurves: 0
  m_Events: []
